	
	{
		"Grid": [
			{
				"Row": [
					{"Square": [3, 7, 9]},
					{"Square": [8, 6]},
					{"Square": [2, 1]},
					{"Square": [2, 1]},
					{"Square": [2, 1, 7]}
				]
			},
			{
				"Row": [
					{"Square": [3, 7]},
					{"Square": [8, 6]},
					{"Square": [2, 1]},
					{"Square": [2, 1]},
					{"Square": [2, 1]}
				]
			},
			{
				"Row": [
					{"Square": []},
					{"Square": [8, 6, 96]},
					{"Square": []},
					{"Square": []},
					{"Square": []}
				]
			},
			{
				"Row": [
					{"Square": []},
					{"Square": []},
					{"Square": [7, 98, 46]},
					{"Square": []},
					{"Square": []}
				]
			},
			{
				"Row": [
					{"Square": []},
					{"Square": []},
					{"Square": []},
					{"Square": []},
					{"Square": []}
				]
			}
		]
	}