{
	"Objects": [
	{

		"id":1,

		"title": "Объект 1",

		"options": {

			"color": "red",

			"description": "Описание для объекта 1",

			"code": "object-1",

			"image": "https://picsum.photos/id/0/5616/3744"

		},

		"lat":52.798494,

		"lng": 17.774929

	},
	{

		"id":2,

		"title": "Объект 2",

		"options": {

			"color": "green",

			"description": "Описание для объекта 2",

			"code": "object-2",

			"image": "https://picsum.photos/id/1/5616/3744"

		},

		"lat":35.449947,

		"lng": -93.710559

		}
	]
}